Sequential_Circuits/project_1_up_down_counter/dump.vcd
$date
	Wed Nov 16 15:41:10 2022
$end
$version
	QuestaSim Version 2021.4_3
$end
$timescale
	1ns
$end

$scope module tb_checker_udc $end
$var reg 1 ! clk $end
$var reg 1 " reset_in $end
$var reg 1 # ncs_in $end
$var reg 1 $ nrd_in $end
$var reg 1 % nwr_in $end
$var reg 1 & start_in $end
$var reg 1 ' a0 $end
$var reg 1 ( a1 $end
$var wire 1 ) wire_din [7] $end
$var wire 1 * wire_din [6] $end
$var wire 1 + wire_din [5] $end
$var wire 1 , wire_din [4] $end
$var wire 1 - wire_din [3] $end
$var wire 1 . wire_din [2] $end
$var wire 1 / wire_din [1] $end
$var wire 1 0 wire_din [0] $end
$var wire 1 1 err_design_out $end
$var wire 1 2 ec_design_out $end
$var wire 1 3 dir_design_out $end
$var reg 8 4 reg_design_din [7:0] $end
$var wire 1 5 count_design_out [7] $end
$var wire 1 6 count_design_out [6] $end
$var wire 1 7 count_design_out [5] $end
$var wire 1 8 count_design_out [4] $end
$var wire 1 9 count_design_out [3] $end
$var wire 1 : count_design_out [2] $end
$var wire 1 ; count_design_out [1] $end
$var wire 1 < count_design_out [0] $end
$var reg 8 = cout_checker_out [7:0] $end
$var reg 1 > err_checker_out $end
$var reg 1 ? ec_checker_out $end
$var reg 1 @ dir_checker_out $end
$var reg 8 A PLR [7:0] $end
$var reg 8 B LLR [7:0] $end
$var reg 8 C ULR [7:0] $end
$var reg 8 D CCR [7:0] $end
$var reg 1 E plr_flag $end
$var reg 1 F ulr_flag $end
$var reg 1 G llr_flag $end
$var reg 1 H ccr_flag $end
$var integer 32 I pulse_counter $end
$var reg 8 J checker_read [7:0] $end

$scope task main $end
$upscope $end

$scope task task_inputs $end
$upscope $end

$scope task task_stimulus $end
$var reg 8 K LLR_new [7:0] $end
$var reg 8 L PLR_new [7:0] $end
$var reg 8 M ULR_new [7:0] $end
$var reg 8 N CCR_new [7:0] $end
$upscope $end

$scope task task_random_input $end
$upscope $end

$scope task task_middle_values $end
$upscope $end

$scope task task_checker $end
$upscope $end

$scope task task_ncs $end
$upscope $end

$scope task task_reset $end
$upscope $end

$scope task task_write $end
$upscope $end

$scope task task_read $end
$upscope $end

$scope task task_error $end
$upscope $end

$scope task task_start1 $end
$upscope $end

$scope task task_start3 $end
$upscope $end

$scope task task_start2 $end
$upscope $end

$scope task task_ec_maker $end
$upscope $end

$scope task task_repeat $end
$upscope $end

$scope task task_ec $end
$upscope $end

$scope task task_compare_design $end
$upscope $end

$scope task task_clk_generation $end
$upscope $end

$scope task task_end_simulation $end
$upscope $end

$scope module DUT $end
$var wire 1 ) Din [7] $end
$var wire 1 * Din [6] $end
$var wire 1 + Din [5] $end
$var wire 1 , Din [4] $end
$var wire 1 - Din [3] $end
$var wire 1 . Din [2] $end
$var wire 1 / Din [1] $end
$var wire 1 0 Din [0] $end
$var wire 1 O clk $end
$var wire 1 P ncs $end
$var wire 1 Q nrd $end
$var wire 1 R nwr $end
$var wire 1 S start_in $end
$var wire 1 T reset $end
$var wire 1 U A0 $end
$var wire 1 V A1 $end
$var reg 8 W cout [7:0] $end
$var reg 1 X err $end
$var reg 1 Y ec $end
$var reg 1 Z dir $end
$var reg 1 [ start_flag $end
$var reg 8 \ reg_out [7:0] $end
$var reg 8 ] temporary_CCR [7:0] $end
$var reg 6 ^ pulse_counter [5:0] $end
$var reg 8 _ PLR [7:0] $end
$var reg 8 ` ULR [7:0] $end
$var reg 8 a CCR [7:0] $end
$var reg 8 b LLR [7:0] $end
$var reg 1 c up_flag $end
$var reg 1 d down_flag $end
$var reg 1 e preload_flag $end
$var reg 1 f plr_flag $end
$var reg 1 g ulr_flag $end
$var reg 1 h llr_flag $end
$var reg 1 i ccr_flag $end
$var reg 1 j data_flag $end
$upscope $end
$upscope $end
$enddefinitions $end
#0
$dumpvars
0!
x"
x#
x$
x%
x&
x'
x(
bx 4
bx =
x>
x?
x@
bx A
bx B
bx C
bx D
xE
xF
xG
xH
bx J
bx W
xX
xY
xZ
x[
bx \
bx ]
bx ^
bx _
bx `
bx a
bx b
xc
xd
xe
xf
xg
xh
xi
xj
bx K
bx L
bx M
bx N
b0 I
x0
x/
x.
x-
x,
x+
x*
x)
x1
x2
x3
x<
x;
x:
x9
x8
x7
x6
x5
xV
xU
xT
xS
xR
xQ
xP
0O
$end
#1
1!
1O
0X
1Y
0i
0h
0g
0f
zZ
0d
0c
0e
0Y
b101 K
b1010 L
b1111 M
b10 N
bz J
01
02
z3
#2
0!
0O
0#
0"
0P
0T
#3
1!
1O
b0 _
b0 b
b0 a
b11111111 `
z[
b0 ^
bz ]
bz W
1Y
b0 A
b0 B
b0 D
b11111111 C
0?
0>
z@
bz =
0E
0G
0F
0H
z<
z;
z:
z9
z8
z7
z6
z5
12
#4
0!
0O
1"
1%
1T
1R
#5
1!
1O
0Y
1Y
#6
0!
0O
0'
0(
0%
b1010 4
0U
0V
0R
00
1/
0.
1-
0,
0+
0*
0)
#7
1!
1O
b1010 _
1f
0f
0Y
b1010 A
1E
02
#8
0!
0O
1'
b1111 4
1U
10
1.
#9
1!
1O
b1111 `
1g
1Y
b1111 C
1F
12
#10
0!
0O
0'
1(
b101 4
0U
1V
0/
0-
#11
1!
1O
0g
0Y
b101 b
1h
1Y
b101 B
1G
#12
0!
0O
1'
b10 4
1U
00
1/
0.
#13
1!
1O
b10 a
1i
0i
0h
0Y
b10 D
1H
02
#14
0!
0O
#15
1!
1O
1Y
0Y
1i
#16
0!
0O
#17
1!
1O
1Y
0i
0Y
#18
0!
0O
1%
0$
z0
z/
z.
z-
z,
z+
z*
z)
1R
0Q
x0
x/
x.
x-
x,
x+
x*
x)
#19
1!
1O
b10 \
1Y
0Y
b10 J
00
1/
0.
0-
0,
0+
0*
0)
#20
0!
0O
0'
0(
0U
0V
#21
1!
1O
1Y
0Y
b1010 \
b1010 J
1-
#22
0!
0O
1'
1U
#23
1!
1O
b1111 \
1Y
0Y
b1111 J
10
1.
#24
0!
0O
0'
1(
0U
1V
#25
1!
1O
1Y
0Y
b101 \
b101 J
0/
0-
#26
0!
0O
1'
1U
#27
1!
1O
b10 \
1Y
0Y
b10 J
00
1/
0.
#28
0!
0O
1&
1$
1Q
z0
z/
z.
z-
z,
z+
z*
z)
1S
#29
1!
1O
b1 ^
1Y
0Y
b1 I
bz J
#30
0!
0O
b10 ^
0&
0S
b10 ]
1Z
1j
1@
13
#31
1!
1O
b1010 W
b1011 W
b1010 =
1<
1;
0:
19
08
07
06
05
1[
1c
#32
0!
0O
#33
1!
1O
b1010 W
0j
b1011 W
b1011 =
#34
0!
0O
#35
1!
1O
b1100 W
b1100 =
0<
0;
1:
#36
0!
0O
#37
1!
1O
b1101 W
b1101 =
1<
#38
0!
0O
#39
1!
1O
b1110 W
b1110 =
0<
1;
#40
0!
0O
#41
1!
1O
b1111 W
b1111 =
0@
1<
#42
0!
0O
#43
1!
1O
1d
0c
b1110 W
b1110 =
0<
#44
0!
0O
#45
1!
1O
b1111 W
b1110 W
b1101 =
#46
0!
0O
#47
1!
1O
b1111 W
b1110 W
b1100 =
#48
0!
0O
#49
1!
1O
b1111 W
b1110 W
b1011 =
#50
0!
0O
#51
1!
1O
b1111 W
b1110 W
b1010 =
#52
0!
0O
#53
1!
1O
b1111 W
b1110 W
b1001 =
#54
0!
0O
#55
1!
1O
b1111 W
b1110 W
b1000 =
#56
0!
0O
#57
1!
1O
b1111 W
b1110 W
b111 =
#58
0!
0O
#59
1!
1O
b1111 W
b1110 W
b110 =
#60
0!
0O
#61
1!
1O
b1111 W
b1110 W
b101 =
1@
#62
0!
0O
#63
1!
1O
b1111 W
b1110 W
b110 =
#64
0!
0O
#65
1!
1O
b1111 W
b1110 W
b111 =
#66
0!
0O
#67
1!
1O
b1111 W
b1110 W
b1000 =
#68
0!
0O
#69
1!
1O
b1111 W
b1110 W
b1001 =
#70
0!
0O
#71
1!
1O
b1111 W
b1110 W
b1010 =
z@
#72
0!
0O
#73
1!
1O
b1111 W
b1110 W
1@
#74
0!
0O
#75
1!
1O
b1111 W
b1110 W
b1011 =
#76
0!
0O
#77
1!
1O
b1111 W
b1110 W
b1100 =
#78
0!
0O
#79
1!
1O
b1111 W
b1110 W
b1101 =
#80
0!
0O
#81
1!
1O
b1111 W
b1110 W
b1110 =
#82
0!
0O
#83
1!
1O
b1111 W
b1110 W
b1111 =
0@
#84
0!
0O
#85
1!
1O
b1111 W
b1110 W
b1110 =
#86
0!
0O
#87
1!
1O
b1111 W
b1110 W
b1101 =
#88
0!
0O
#89
1!
1O
b1111 W
b1110 W
b1100 =
#90
0!
0O
#91
1!
1O
b1111 W
b1110 W
b1011 =
#92
0!
0O
#93
1!
1O
b1111 W
b1110 W
b1010 =
#94
0!
0O
#95
1!
1O
b1111 W
b1110 W
b1001 =
#96
0!
0O
#97
1!
1O
b1111 W
b1110 W
b1000 =
#98
0!
0O
#99
1!
1O
b1111 W
b1110 W
b111 =
#100
0!
0O
#101
1!
1O
b1111 W
b1110 W
b110 =
#102
0!
0O
#103
1!
1O
b1111 W
b1110 W
b101 =
1@
#104
0!
0O
#105
1!
1O
b1111 W
b1110 W
b110 =
#106
0!
0O
#107
1!
1O
b1111 W
b1110 W
b111 =
#108
0!
0O
#109
1!
1O
b1111 W
b1110 W
b1000 =
#110
0!
0O
#111
1!
1O
b1111 W
b1110 W
b1001 =
#112
0!
0O
#113
1!
1O
b1111 W
b1110 W
b1010 =
z@
1?
0H
0F
0G
0E
b0 I
#114
0!
0O
b0 K
b0 L
b0 M
b0 N
#115
1!
1O
b1111 W
b1110 W
0?
#116
0!
0O
0"
0T
#117
1!
1O
b0 _
b0 b
b0 a
b11111111 `
zZ
z[
b0 ^
bz ]
bz W
0d
1Y
b0 A
b0 B
b0 D
b11111111 C
bz =
z3
z<
z;
z:
z9
z8
z7
z6
z5
12
#118
0!
0O
1"
1T
#119
1!
1O
0Y
1Y
#120
0!
0O
0'
0(
0%
b0 4
0U
0V
00
0/
0.
0-
0,
0+
0*
0)
0R
#121
1!
1O
1f
0f
0Y
1E
02
#122
0!
0O
1'
1U
#123
1!
1O
1Y
b0 `
1g
0g
0Y
b0 C
1F
#124
0!
0O
0'
1(
0U
1V
#125
1!
1O
1h
1Y
0h
0Y
1G
#126
0!
0O
1'
1U
#127
1!
1O
1Y
1i
0i
0Y
1H
#128
0!
0O
#129
1!
1O
1i
1Y
0i
0Y
#130
0!
0O
#131
1!
1O
1Y
1i
0i
0Y
#132
0!
0O
1%
0$
z0
z/
z.
z-
z,
z+
z*
z)
1R
0Q
00
1/
0.
0-
0,
0+
0*
0)
#133
1!
1O
b0 \
1Y
0Y
b0 J
0/
#134
0!
0O
0'
0(
0U
0V
#135
1!
1O
1Y
0Y
#136
0!
0O
1'
1U
#137
1!
1O
1Y
0Y
#138
0!
0O
0'
1(
0U
1V
#139
1!
1O
1Y
0Y
#140
0!
0O
1'
1U
#141
1!
1O
1Y
0Y
#142
0!
0O
1&
1$
1Q
z0
z/
z.
z-
z,
z+
z*
z)
1S
#143
1!
1O
b1 ^
1Y
0Y
bz J
b1 I
#144
0!
0O
b10 ^
0&
0S
b0 ^
0[
0H
0G
0F
0E
#145
1!
1O
1Y
0Y
#146
0!
0O
b1010 K
b1010 L
b1010 M
b10 N
#147
1!
1O
1Y
0Y
#148
0!
0O
0"
0T
#149
1!
1O
b11111111 `
z[
1Y
0Y
b11111111 C
b0 I
#150
0!
0O
1"
1T
#151
1!
1O
1Y
12
#152
0!
0O
0'
0(
0%
b1010 4
0U
0V
00
1/
0.
1-
0,
0+
0*
0)
0R
#153
1!
1O
b1010 _
1f
0f
0Y
b1010 A
1E
02
#154
0!
0O
1'
1U
#155
1!
1O
b1010 `
1g
1Y
b1010 C
1F
12
#156
0!
0O
0'
1(
0U
1V
#157
1!
1O
0g
0Y
b1010 b
1h
1Y
b1010 B
1G
#158
0!
0O
1'
b10 4
1U
0-
#159
1!
1O
b10 a
1i
0i
0h
0Y
b10 D
1H
02
#160
0!
0O
#161
1!
1O
1Y
0Y
1i
#162
0!
0O
#163
1!
1O
1Y
0i
0Y
#164
0!
0O
1%
0$
z0
z/
z.
z-
z,
z+
z*
z)
1R
0Q
00
0/
0.
0-
0,
0+
0*
0)
#165
1!
1O
b10 \
1Y
0Y
b10 J
1/
#166
0!
0O
0'
0(
0U
0V
#167
1!
1O
1Y
0Y
b1010 \
b1010 J
1-
#168
0!
0O
1'
1U
#169
1!
1O
1Y
0Y
#170
0!
0O
0'
1(
0U
1V
#171
1!
1O
1Y
0Y
#172
0!
0O
1'
1U
#173
1!
1O
b10 \
1Y
0Y
b10 J
0-
#174
0!
0O
1&
1$
1Q
z0
z/
z.
z-
z,
z+
z*
z)
1S
#175
1!
1O
b1 ^
1Y
0Y
bz J
b1 I
#176
0!
0O
b10 ^
0&
0S
b10 ]
1Z
1j
1@
13
#177
1!
1O
b1010 W
1d
b1010 =
0<
1;
0:
19
08
07
06
05
1[
1c
#178
0!
0O
#179
1!
1O
0j
0c
0d
1e
b1 ]
0e
1c
1?
0H
0F
0G
0E
b0 I
z@
#180
0!
0O
b11111111 K
b11111111 L
b11111111 M
b101 N
#181
1!
1O
1d
0c
0d
1e
b0 ]
0e
1c
0?
#182
0!
0O
0"
0T
#183
1!
1O
b0 _
b0 b
b0 a
b11111111 `
zZ
z[
b0 ^
bz ]
bz W
0c
1Y
0Y
b0 A
b0 B
b0 D
b11111111 C
bz =
z3
z<
z;
z:
z9
z8
z7
z6
z5
#184
0!
0O
1"
1T
#185
1!
1O
1Y
12
#186
0!
0O
0'
0(
0%
b11111111 4
0U
0V
10
1/
1.
1-
1,
1+
1*
1)
0R
#187
1!
1O
b11111111 _
1f
0f
0Y
b11111111 A
1E
02
#188
0!
0O
1'
1U
#189
1!
1O
1g
1Y
1F
12
#190
0!
0O
0'
1(
0U
1V
#191
1!
1O
b11111111 b
1h
0h
0g
0Y
b11111111 B
1G
02
#192
0!
0O
1'
b101 4
1U
0/
0-
0,
0+
0*
0)
#193
1!
1O
b101 a
1i
1Y
b101 D
1H
12
#194
0!
0O
#195
1!
1O
0i
0Y
1i
02
#196
0!
0O
#197
1!
1O
1Y
0i
0Y
#198
0!
0O
1%
0$
z0
z/
z.
z-
z,
z+
z*
z)
1R
0Q
00
1/
0.
0-
0,
0+
0*
0)
#199
1!
1O
b101 \
1Y
0Y
b101 J
10
0/
1.
#200
0!
0O
0'
0(
0U
0V
#201
1!
1O
1Y
0Y
b11111111 \
b11111111 J
1/
1-
1,
1+
1*
1)
#202
0!
0O
1'
1U
#203
1!
1O
1Y
0Y
#204
0!
0O
0'
1(
0U
1V
#205
1!
1O
1Y
0Y
#206
0!
0O
1'
1U
#207
1!
1O
b101 \
1Y
0Y
b101 J
0/
0-
0,
0+
0*
0)
#208
0!
0O
1&
1$
1Q
z0
z/
z.
z-
z,
z+
z*
z)
1S
#209
1!
1O
b1 ^
1Y
0Y
b1 I
bz J
#210
0!
0O
b10 ^
0&
0S
b101 ]
1Z
1j
1@
13
#211
1!
1O
b11111111 W
1d
b11111111 =
1<
1;
1:
19
18
17
16
15
1[
1c
#212
0!
0O
#213
1!
1O
0j
0c
0d
1e
b100 ]
0e
1c
#214
0!
0O
#215
1!
1O
1d
0c
0d
1e
b11 ]
0e
1c
#216
0!
0O
#217
1!
1O
1d
0c
0d
1e
b10 ]
0e
1c
#218
0!
0O
#219
1!
1O
1d
0c
0d
1e
b1 ]
0e
1c
1?
0H
0F
0G
0E
b0 I
z@
#220
0!
0O
b1111011 K
b1111011 L
b1111011 M
b1111011 N
#221
1!
1O
1d
0c
0d
1e
b0 ]
0e
1c
0?
#222
0!
0O
0"
0T
#223
1!
1O
b0 _
b0 b
b0 a
zZ
z[
b0 ^
bz ]
bz W
0c
1Y
0Y
b0 A
b0 B
b0 D
bz =
z3
z<
z;
z:
z9
z8
z7
z6
z5
#224
0!
0O
1"
1T
#225
1!
1O
1Y
12
#226
0!
0O
0'
0(
0%
b1111011 4
0U
0V
10
1/
0.
1-
1,
1+
1*
0)
0R
#227
1!
1O
b1111011 _
1f
0f
0Y
b1111011 A
1E
02
#228
0!
0O
1'
1U
#229
1!
1O
b1111011 `
1g
1Y
b1111011 C
1F
12
#230
0!
0O
0'
1(
0U
1V
#231
1!
1O
0g
0Y
b1111011 b
1h
1Y
b1111011 B
1G
#232
0!
0O
1'
1U
#233
1!
1O
b1111011 a
1i
0i
0h
0Y
b1111011 D
1H
02
#234
0!
0O
#235
1!
1O
1Y
0Y
1i
#236
0!
0O
#237
1!
1O
1Y
0i
0Y
#238
0!
0O
1%
0$
z0
z/
z.
z-
z,
z+
z*
z)
1R
0Q
10
0/
1.
0-
0,
0+
0*
0)
#239
1!
1O
b1111011 \
1Y
0Y
b1111011 J
1/
0.
1-
1,
1+
1*
#240
0!
0O
0'
0(
0U
0V
#241
1!
1O
1Y
0Y
#242
0!
0O
1'
1U
#243
1!
1O
1Y
0Y
#244
0!
0O
0'
1(
0U
1V
#245
1!
1O
1Y
0Y
#246
0!
0O
1'
1U
#247
1!
1O
1Y
0Y
#248
0!
0O
1&
1$
1Q
z0
z/
z.
z-
z,
z+
z*
z)
1S
#249
1!
1O
b1 ^
1Y
0Y
b1 I
bz J
#250
0!
0O
b10 ^
0&
0S
b1111011 ]
1Z
1j
1@
13
#251
1!
1O
b1111011 W
1d
b1111011 =
1<
1;
0:
19
18
17
16
05
1[
1c
#252
0!
0O
#253
1!
1O
0j
0c
0d
1e
b1111010 ]
0e
1c
#254
0!
0O
#255
1!
1O
1d
0c
0d
1e
b1111001 ]
0e
1c
#256
0!
0O
#257
1!
1O
1d
0c
0d
1e
b1111000 ]
0e
1c
#258
0!
0O
#259
1!
1O
1d
0c
0d
1e
b1110111 ]
0e
1c
#260
0!
0O
#261
1!
1O
1d
0c
0d
1e
b1110110 ]
0e
1c
#262
0!
0O
#263
1!
1O
1d
0c
0d
1e
b1110101 ]
0e
1c
#264
0!
0O
#265
1!
1O
1d
0c
0d
1e
b1110100 ]
0e
1c
#266
0!
0O
#267
1!
1O
1d
0c
0d
1e
b1110011 ]
0e
1c
#268
0!
0O
#269
1!
1O
1d
0c
0d
1e
b1110010 ]
0e
1c
#270
0!
0O
#271
1!
1O
1d
0c
0d
1e
b1110001 ]
0e
1c
#272
0!
0O
#273
1!
1O
1d
0c
0d
1e
b1110000 ]
0e
1c
#274
0!
0O
#275
1!
1O
1d
0c
0d
1e
b1101111 ]
0e
1c
#276
0!
0O
#277
1!
1O
1d
0c
0d
1e
b1101110 ]
0e
1c
#278
0!
0O
#279
1!
1O
1d
0c
0d
1e
b1101101 ]
0e
1c
#280
0!
0O
#281
1!
1O
1d
0c
0d
1e
b1101100 ]
0e
1c
#282
0!
0O
#283
1!
1O
1d
0c
0d
1e
b1101011 ]
0e
1c
#284
0!
0O
#285
1!
1O
1d
0c
0d
1e
b1101010 ]
0e
1c
#286
0!
0O
#287
1!
1O
1d
0c
0d
1e
b1101001 ]
0e
1c
#288
0!
0O
#289
1!
1O
1d
0c
0d
1e
b1101000 ]
0e
1c
#290
0!
0O
#291
1!
1O
1d
0c
0d
1e
b1100111 ]
0e
1c
#292
0!
0O
#293
1!
1O
1d
0c
0d
1e
b1100110 ]
0e
1c
#294
0!
0O
#295
1!
1O
1d
0c
0d
1e
b1100101 ]
0e
1c
#296
0!
0O
#297
1!
1O
1d
0c
0d
1e
b1100100 ]
0e
1c
#298
0!
0O
#299
1!
1O
1d
0c
0d
1e
b1100011 ]
0e
1c
#300
0!
0O
#301
1!
1O
1d
0c
0d
1e
b1100010 ]
0e
1c
#302
0!
0O
#303
1!
1O
1d
0c
0d
1e
b1100001 ]
0e
1c
#304
0!
0O
#305
1!
1O
1d
0c
0d
1e
b1100000 ]
0e
1c
#306
0!
0O
#307
1!
1O
1d
0c
0d
1e
b1011111 ]
0e
1c
#308
0!
0O
#309
1!
1O
1d
0c
0d
1e
b1011110 ]
0e
1c
#310
0!
0O
#311
1!
1O
1d
0c
0d
1e
b1011101 ]
0e
1c
#312
0!
0O
#313
1!
1O
1d
0c
0d
1e
b1011100 ]
0e
1c
#314
0!
0O
#315
1!
1O
1d
0c
0d
1e
b1011011 ]
0e
1c
#316
0!
0O
#317
1!
1O
1d
0c
0d
1e
b1011010 ]
0e
1c
#318
0!
0O
#319
1!
1O
1d
0c
0d
1e
b1011001 ]
0e
1c
#320
0!
0O
#321
1!
1O
1d
0c
0d
1e
b1011000 ]
0e
1c
#322
0!
0O
#323
1!
1O
1d
0c
0d
1e
b1010111 ]
0e
1c
#324
0!
0O
#325
1!
1O
1d
0c
0d
1e
b1010110 ]
0e
1c
#326
0!
0O
#327
1!
1O
1d
0c
0d
1e
b1010101 ]
0e
1c
#328
0!
0O
#329
1!
1O
1d
0c
0d
1e
b1010100 ]
0e
1c
#330
0!
0O
#331
1!
1O
1d
0c
0d
1e
b1010011 ]
0e
1c
#332
0!
0O
#333
1!
1O
1d
0c
0d
1e
b1010010 ]
0e
1c
#334
0!
0O
#335
1!
1O
1d
0c
0d
1e
b1010001 ]
0e
1c
#336
0!
0O
#337
1!
1O
1d
0c
0d
1e
b1010000 ]
0e
1c
#338
0!
0O
#339
1!
1O
1d
0c
0d
1e
b1001111 ]
0e
1c
#340
0!
0O
#341
1!
1O
1d
0c
0d
1e
b1001110 ]
0e
1c
#342
0!
0O
#343
1!
1O
1d
0c
0d
1e
b1001101 ]
0e
1c
#344
0!
0O
#345
1!
1O
1d
0c
0d
1e
b1001100 ]
0e
1c
#346
0!
0O
#347
1!
1O
1d
0c
0d
1e
b1001011 ]
0e
1c
#348
0!
0O
#349
1!
1O
1d
0c
0d
1e
b1001010 ]
0e
1c
#350
0!
0O
#351
1!
1O
1d
0c
0d
1e
b1001001 ]
0e
1c
#352
0!
0O
#353
1!
1O
1d
0c
0d
1e
b1001000 ]
0e
1c
#354
0!
0O
#355
1!
1O
1d
0c
0d
1e
b1000111 ]
0e
1c
#356
0!
0O
#357
1!
1O
1d
0c
0d
1e
b1000110 ]
0e
1c
#358
0!
0O
#359
1!
1O
1d
0c
0d
1e
b1000101 ]
0e
1c
#360
0!
0O
#361
1!
1O
1d
0c
0d
1e
b1000100 ]
0e
1c
#362
0!
0O
#363
1!
1O
1d
0c
0d
1e
b1000011 ]
0e
1c
#364
0!
0O
#365
1!
1O
1d
0c
0d
1e
b1000010 ]
0e
1c
#366
0!
0O
#367
1!
1O
1d
0c
0d
1e
b1000001 ]
0e
1c
#368
0!
0O
#369
1!
1O
1d
0c
0d
1e
b1000000 ]
0e
1c
#370
0!
0O
#371
1!
1O
1d
0c
0d
1e
b111111 ]
0e
1c
#372
0!
0O
#373
1!
1O
1d
0c
0d
1e
b111110 ]
0e
1c
#374
0!
0O
#375
1!
1O
1d
0c
0d
1e
b111101 ]
0e
1c
#376
0!
0O
#377
1!
1O
1d
0c
0d
1e
b111100 ]
0e
1c
#378
0!
0O
#379
1!
1O
1d
0c
0d
1e
b111011 ]
0e
1c
#380
0!
0O
#381
1!
1O
1d
0c
0d
1e
b111010 ]
0e
1c
#382
0!
0O
#383
1!
1O
1d
0c
0d
1e
b111001 ]
0e
1c
#384
0!
0O
#385
1!
1O
1d
0c
0d
1e
b111000 ]
0e
1c
#386
0!
0O
#387
1!
1O
1d
0c
0d
1e
b110111 ]
0e
1c
#388
0!
0O
#389
1!
1O
1d
0c
0d
1e
b110110 ]
0e
1c
#390
0!
0O
#391
1!
1O
1d
0c
0d
1e
b110101 ]
0e
1c
#392
0!
0O
#393
1!
1O
1d
0c
0d
1e
b110100 ]
0e
1c
#394
0!
0O
#395
1!
1O
1d
0c
0d
1e
b110011 ]
0e
1c
#396
0!
0O
#397
1!
1O
1d
0c
0d
1e
b110010 ]
0e
1c
#398
0!
0O
#399
1!
1O
1d
0c
0d
1e
b110001 ]
0e
1c
#400
0!
0O
#401
1!
1O
1d
0c
0d
1e
b110000 ]
0e
1c
#402
0!
0O
#403
1!
1O
1d
0c
0d
1e
b101111 ]
0e
1c
#404
0!
0O
#405
1!
1O
1d
0c
0d
1e
b101110 ]
0e
1c
#406
0!
0O
#407
1!
1O
1d
0c
0d
1e
b101101 ]
0e
1c
#408
0!
0O
#409
1!
1O
1d
0c
0d
1e
b101100 ]
0e
1c
#410
0!
0O
#411
1!
1O
1d
0c
0d
1e
b101011 ]
0e
1c
#412
0!
0O
#413
1!
1O
1d
0c
0d
1e
b101010 ]
0e
1c
#414
0!
0O
#415
1!
1O
1d
0c
0d
1e
b101001 ]
0e
1c
#416
0!
0O
#417
1!
1O
1d
0c
0d
1e
b101000 ]
0e
1c
#418
0!
0O
#419
1!
1O
1d
0c
0d
1e
b100111 ]
0e
1c
#420
0!
0O
#421
1!
1O
1d
0c
0d
1e
b100110 ]
0e
1c
#422
0!
0O
#423
1!
1O
1d
0c
0d
1e
b100101 ]
0e
1c
#424
0!
0O
#425
1!
1O
1d
0c
0d
1e
b100100 ]
0e
1c
#426
0!
0O
#427
1!
1O
1d
0c
0d
1e
b100011 ]
0e
1c
#428
0!
0O
#429
1!
1O
1d
0c
0d
1e
b100010 ]
0e
1c
#430
0!
0O
#431
1!
1O
1d
0c
0d
1e
b100001 ]
0e
1c
#432
0!
0O
#433
1!
1O
1d
0c
0d
1e
b100000 ]
0e
1c
#434
0!
0O
#435
1!
1O
1d
0c
0d
1e
b11111 ]
0e
1c
#436
0!
0O
#437
1!
1O
1d
0c
0d
1e
b11110 ]
0e
1c
#438
0!
0O
#439
1!
1O
1d
0c
0d
1e
b11101 ]
0e
1c
#440
0!
0O
#441
1!
1O
1d
0c
0d
1e
b11100 ]
0e
1c
#442
0!
0O
#443
1!
1O
1d
0c
0d
1e
b11011 ]
0e
1c
#444
0!
0O
#445
1!
1O
1d
0c
0d
1e
b11010 ]
0e
1c
#446
0!
0O
#447
1!
1O
1d
0c
0d
1e
b11001 ]
0e
1c
#448
0!
0O
#449
1!
1O
1d
0c
0d
1e
b11000 ]
0e
1c
#450
0!
0O
#451
1!
1O
1d
0c
0d
1e
b10111 ]
0e
1c
#452
0!
0O
#453
1!
1O
1d
0c
0d
1e
b10110 ]
0e
1c
#454
0!
0O
#455
1!
1O
1d
0c
0d
1e
b10101 ]
0e
1c
#456
0!
0O
#457
1!
1O
1d
0c
0d
1e
b10100 ]
0e
1c
#458
0!
0O
#459
1!
1O
1d
0c
0d
1e
b10011 ]
0e
1c
#460
0!
0O
#461
1!
1O
1d
0c
0d
1e
b10010 ]
0e
1c
#462
0!
0O
#463
1!
1O
1d
0c
0d
1e
b10001 ]
0e
1c
#464
0!
0O
#465
1!
1O
1d
0c
0d
1e
b10000 ]
0e
1c
#466
0!
0O
#467
1!
1O
1d
0c
0d
1e
b1111 ]
0e
1c
#468
0!
0O
#469
1!
1O
1d
0c
0d
1e
b1110 ]
0e
1c
#470
0!
0O
#471
1!
1O
1d
0c
0d
1e
b1101 ]
0e
1c
#472
0!
0O
#473
1!
1O
1d
0c
0d
1e
b1100 ]
0e
1c
#474
0!
0O
#475
1!
1O
1d
0c
0d
1e
b1011 ]
0e
1c
#476
0!
0O
#477
1!
1O
1d
0c
0d
1e
b1010 ]
0e
1c
#478
0!
0O
#479
1!
1O
1d
0c
0d
1e
b1001 ]
0e
1c
#480
0!
0O
#481
1!
1O
1d
0c
0d
1e
b1000 ]
0e
1c
#482
0!
0O
#483
1!
1O
1d
0c
0d
1e
b111 ]
0e
1c
#484
0!
0O
#485
1!
1O
1d
0c
0d
1e
b110 ]
0e
1c
#486
0!
0O
#487
1!
1O
1d
0c
0d
1e
b101 ]
0e
1c
#488
0!
0O
#489
1!
1O
1d
0c
0d
1e
b100 ]
0e
1c
#490
0!
0O
#491
1!
1O
1d
0c
0d
1e
b11 ]
0e
1c
#492
0!
0O
#493
1!
1O
1d
0c
0d
1e
b10 ]
0e
1c
#494
0!
0O
#495
1!
1O
1d
0c
0d
1e
b1 ]
0e
1c
1?
0H
0F
0G
0E
b0 I
z@
#496
0!
0O
b100 K
b101 L
b111 M
b110 N
#497
1!
1O
1d
0c
0d
1e
b0 ]
0e
1c
0?
#498
0!
0O
0"
0T
#499
1!
1O
b0 _
b0 b
b0 a
b11111111 `
zZ
z[
b0 ^
bz ]
bz W
0c
1Y
0Y
b0 A
b0 B
b0 D
b11111111 C
bz =
z3
z<
z;
z:
z9
z8
z7
z6
z5
#500
0!
0O
1"
1T
#501
1!
1O
1Y
12
#502
0!
0O
0'
0(
0%
b101 4
0U
0V
10
0/
1.
0-
0,
0+
0*
0)
0R
#503
1!
1O
b101 _
1f
0f
0Y
b101 A
1E
02
#504
0!
0O
1'
b111 4
1U
1/
#505
1!
1O
b111 `
1g
1Y
b111 C
1F
12
#506
0!
0O
0'
1(
b100 4
0U
1V
00
0/
#507
1!
1O
0g
0Y
b100 b
1h
1Y
b100 B
1G
#508
0!
0O
1'
b110 4
1U
1/
#509
1!
1O
b110 a
1i
0i
0h
0Y
b110 D
1H
02
#510
0!
0O
#511
1!
1O
1Y
0Y
1i
#512
0!
0O
#513
1!
1O
1Y
0i
0Y
#514
0!
0O
1%
0$
z0
z/
z.
z-
z,
z+
z*
z)
1R
0Q
10
1/
0.
1-
1,
1+
1*
0)
#515
1!
1O
b110 \
1Y
0Y
b110 J
00
1.
0-
0,
0+
0*
#516
0!
0O
0'
0(
0U
0V
#517
1!
1O
1Y
0Y
b101 \
b101 J
10
0/
#518
0!
0O
1'
1U
#519
1!
1O
b111 \
1Y
0Y
b111 J
1/
#520
0!
0O
0'
1(
0U
1V
#521
1!
1O
1Y
0Y
b100 \
b100 J
00
0/
#522
0!
0O
1'
1U
