Verilog_Basics/compiler_directives/dump.vcd
$date
	Fri Nov 18 18:58:00 2022
$end
$version
	QuestaSim Version 2021.4_3
$end
$timescale
	1ps
$end

$scope module tb_checker_udc $end
$var reg 1 ! clk $end
$var reg 1 " reset_in $end
$var reg 1 # ncs_in $end
$var reg 1 $ nrd_in $end
$var reg 1 % nwr_in $end
$var reg 1 & start_in $end
$var reg 1 ' a0 $end
$var reg 1 ( a1 $end
$var wire 1 ) wire_din [7] $end
$var wire 1 * wire_din [6] $end
$var wire 1 + wire_din [5] $end
$var wire 1 , wire_din [4] $end
$var wire 1 - wire_din [3] $end
$var wire 1 . wire_din [2] $end
$var wire 1 / wire_din [1] $end
$var wire 1 0 wire_din [0] $end
$var wire 1 1 err_design_out $end
$var wire 1 2 ec_design_out $end
$var wire 1 3 dir_design_out $end
$var reg 8 4 reg_design_din [7:0] $end
$var wire 1 5 count_design_out [7] $end
$var wire 1 6 count_design_out [6] $end
$var wire 1 7 count_design_out [5] $end
$var wire 1 8 count_design_out [4] $end
$var wire 1 9 count_design_out [3] $end
$var wire 1 : count_design_out [2] $end
$var wire 1 ; count_design_out [1] $end
$var wire 1 < count_design_out [0] $end
$var reg 8 = cout_checker_out [7:0] $end
$var reg 1 > err_checker_out $end
$var reg 1 ? ec_checker_out $end
$var reg 1 @ dir_checker_out $end
$var reg 8 A PLR [7:0] $end
$var reg 8 B LLR [7:0] $end
$var reg 8 C ULR [7:0] $end
$var reg 8 D CCR [7:0] $end
$var reg 1 E plr_flag $end
$var reg 1 F ulr_flag $end
$var reg 1 G llr_flag $end
$var reg 1 H ccr_flag $end
$var integer 32 I pulse_counter $end
$var reg 8 J checker_read [7:0] $end
$var integer 32 K fd_DUT $end
$var integer 32 L fd_CHECKER $end

$scope task main $end
$upscope $end

$scope task task_clk_generation1 $end
$upscope $end

$scope task task_write_into_file $end
$upscope $end

$scope task task_inputs $end
$upscope $end

$scope task task_stimulus $end
$var reg 8 M LLR_new [7:0] $end
$var reg 8 N PLR_new [7:0] $end
$var reg 8 O ULR_new [7:0] $end
$var reg 8 P CCR_new [7:0] $end
$upscope $end

$scope task task_random_input $end
$upscope $end

$scope task task_middle_values $end
$upscope $end

$scope task task_checker $end
$upscope $end

$scope task task_ncs $end
$upscope $end

$scope task task_reset $end
$upscope $end

$scope task task_write $end
$upscope $end

$scope task task_read $end
$upscope $end

$scope task task_error $end
$upscope $end

$scope task task_start1 $end
$upscope $end

$scope task task_start3 $end
$upscope $end

$scope task task_start2 $end
$upscope $end

$scope task task_ec_maker $end
$upscope $end

$scope task task_repeat $end
$upscope $end

$scope task task_ec $end
$upscope $end

$scope task task_compare_design $end
$upscope $end

$scope module DUT $end
$var wire 1 ) Din [7] $end
$var wire 1 * Din [6] $end
$var wire 1 + Din [5] $end
$var wire 1 , Din [4] $end
$var wire 1 - Din [3] $end
$var wire 1 . Din [2] $end
$var wire 1 / Din [1] $end
$var wire 1 0 Din [0] $end
$var wire 1 Q clk $end
$var wire 1 R ncs $end
$var wire 1 S nrd $end
$var wire 1 T nwr $end
$var wire 1 U start_in $end
$var wire 1 V reset $end
$var wire 1 W A0 $end
$var wire 1 X A1 $end
$var reg 8 Y cout [7:0] $end
$var reg 1 Z err $end
$var reg 1 [ ec $end
$var reg 1 \ dir $end
$var reg 1 ] start_flag $end
$var reg 8 ^ reg_out [7:0] $end
$var reg 8 _ temporary_CCR [7:0] $end
$var reg 6 ` pulse_counter [5:0] $end
$var reg 8 a PLR [7:0] $end
$var reg 8 b ULR [7:0] $end
$var reg 8 c CCR [7:0] $end
$var reg 8 d LLR [7:0] $end
$var reg 1 e up_flag $end
$var reg 1 f down_flag $end
$var reg 1 g preload_flag $end
$var reg 1 h plr_flag $end
$var reg 1 i ulr_flag $end
$var reg 1 j llr_flag $end
$var reg 1 k ccr_flag $end
$var reg 1 l data_flag $end
$upscope $end
$upscope $end
$enddefinitions $end
#0
$dumpvars
0!
x"
x#
x$
x%
x&
x'
x(
bx 4
bx =
x>
x?
x@
bx A
bx B
bx C
bx D
xE
xF
xG
xH
bx J
bx Y
xZ
x[
x\
x]
bx ^
bx _
bx `
bx a
bx b
bx c
bx d
xe
xf
xg
xh
xi
xj
xk
xl
bx M
bx N
bx O
bx P
b0 I
b10000000000000000000000000000011 K
b10000000000000000000000000000100 L
x0
x/
x.
x-
x,
x+
x*
x)
x1
x2
x3
x<
x;
x:
x9
x8
x7
x6
x5
xX
xW
xV
xU
xT
xS
xR
0Q
$end
#30300
1!
1Q
0Z
b101 M
b1010 N
b1111 O
b10 P
bz J
01
#60600
0!
0Q
0#
0"
0R
0V
#90900
1!
1Q
b0 a
b0 d
b0 c
b11111111 b
0[
z\
z]
b0 `
bz _
bz Y
0h
0j
0i
0k
0g
0f
0e
b0 A
b0 B
b0 D
b11111111 C
0?
0>
z@
bz =
0E
0G
0F
0H
02
z3
z<
z;
z:
z9
z8
z7
z6
z5
#121200
0!
0Q
1"
1%
1V
1T
#151500
1!
1Q
#181800
0!
0Q
0'
0(
0%
b1010 4
0W
0X
0T
00
1/
0.
1-
0,
0+
0*
0)
#212100
1!
1Q
b1010 a
1h
b1010 A
1E
#242400
0!
0Q
1'
b1111 4
1W
10
1.
#272700
1!
1Q
b1111 b
1i
b1111 C
1F
#303000
0!
0Q
0'
1(
b101 4
0W
1X
0/
0-
#333300
1!
1Q
b101 d
1j
b101 B
1G
#363600
0!
0Q
1'
b10 4
1W
00
1/
0.
#393900
1!
1Q
b10 c
1k
b10 D
1H
#424200
0!
0Q
1%
0$
z0
z/
z.
z-
z,
z+
z*
z)
1T
0S
x0
x/
x.
x-
x,
x+
x*
x)
#454500
1!
1Q
b10 ^
b10 J
00
1/
0.
0-
0,
0+
0*
0)
#484800
0!
0Q
0'
0(
0W
0X
#515100
1!
1Q
b1010 ^
b1010 J
1-
#545400
0!
0Q
1'
1W
#575700
1!
1Q
b1111 ^
b1111 J
10
1.
#606000
0!
0Q
0'
1(
0W
1X
#636300
1!
1Q
b101 ^
b101 J
0/
0-
#666600
0!
0Q
1'
1W
#696900
1!
1Q
b10 ^
b10 J
00
1/
0.
#727200
0!
0Q
1&
1$
1S
z0
z/
z.
z-
z,
z+
z*
z)
1U
#757500
1!
1Q
b1 `
b1 I
bz J
#787800
0!
0Q
b10 `
0&
0U
b10 _
1\
1l
1@
13
#818100
1!
1Q
1e
b1010 Y
b1010 =
0<
1;
0:
19
08
07
06
05
1]
#848400
0!
0Q
#878700
1!
1Q
0l
b1011 Y
b1011 =
1<
#909000
0!
0Q
#939300
1!
1Q
b1100 Y
b1100 =
0<
0;
1:
#969600
0!
0Q
#999900
1!
1Q
b1101 Y
b1101 =
1<
#1030200
0!
0Q
#1060500
1!
1Q
b1110 Y
b1110 =
0<
1;
#1090800
0!
0Q
#1121100
1!
1Q
b1111 Y
0\
b1111 =
0@
1<
03
#1151400
0!
0Q
#1181700
1!
1Q
1f
0e
b1110 Y
b1110 =
0<
#1212000
0!
0Q
#1242300
1!
1Q
b1101 Y
b1101 =
1<
0;
#1272600
0!
0Q
#1302900
1!
1Q
b1100 Y
b1100 =
0<
#1333200
0!
0Q
#1363500
1!
1Q
b1011 Y
b1011 =
1<
1;
0:
#1393800
0!
0Q
#1424100
1!
1Q
b1010 Y
b1010 =
0<
#1454400
0!
0Q
#1484700
1!
1Q
b1001 Y
b1001 =
1<
0;
#1515000
0!
0Q
#1545300
1!
1Q
b1000 Y
b1000 =
0<
#1575600
0!
0Q
#1605900
1!
1Q
b111 Y
b111 =
1<
1;
1:
09
#1636200
0!
0Q
#1666500
1!
1Q
b110 Y
b110 =
0<
#1696800
0!
0Q
#1727100
1!
1Q
b101 Y
1\
b101 =
1@
1<
0;
13
#1757400
0!
0Q
#1787700
1!
1Q
1g
0f
b110 Y
b110 =
0<
1;
#1818000
0!
0Q
#1848300
1!
1Q
b111 Y
b111 =
1<
#1878600
0!
0Q
#1908900
1!
1Q
b1000 Y
b1000 =
0<
0;
0:
19
#1939200
0!
0Q
#1969500
1!
1Q
b1001 Y
b1001 =
1<
#1999800
0!
0Q
#2030100
1!
1Q
b1010 Y
z\
b1010 =
z@
0<
1;
z3
#2060400
0!
0Q
#2090700
1!
1Q
b1 _
1\
0g
1e
1@
13
#2121000
0!
0Q
#2151300
1!
1Q
b1011 Y
b1011 =
1<
#2181600
0!
0Q
#2211900
1!
1Q
b1100 Y
b1100 =
0<
0;
1:
#2242200
0!
0Q
#2272500
1!
1Q
b1101 Y
b1101 =
1<
#2302800
0!
0Q
#2333100
1!
1Q
b1110 Y
b1110 =
0<
1;
#2363400
0!
0Q
#2393700
1!
1Q
b1111 Y
0\
b1111 =
0@
1<
03
#2424000
0!
0Q
#2454300
1!
1Q
1f
0e
b1110 Y
b1110 =
0<
#2484600
0!
0Q
#2514900
1!
1Q
b1101 Y
b1101 =
1<
0;
#2545200
0!
0Q
#2575500
1!
1Q
b1100 Y
b1100 =
0<
#2605800
0!
0Q
#2636100
1!
1Q
b1011 Y
b1011 =
1<
1;
0:
#2666400
0!
0Q
#2696700
1!
1Q
b1010 Y
b1010 =
0<
#2727000
0!
0Q
#2757300
1!
1Q
b1001 Y
b1001 =
1<
0;
#2787600
0!
0Q
#2817900
1!
1Q
b1000 Y
b1000 =
0<
#2848200
0!
0Q
#2878500
1!
1Q
b111 Y
b111 =
1<
1;
1:
09
#2908800
0!
0Q
#2939100
1!
1Q
b110 Y
b110 =
0<
#2969400
0!
0Q
#2999700
1!
1Q
b101 Y
1\
b101 =
1@
1<
0;
13
#3030000
0!
0Q
#3060300
1!
1Q
1g
0f
b110 Y
b110 =
0<
1;
#3090600
0!
0Q
#3120900
1!
1Q
b111 Y
b111 =
1<
#3151200
0!
0Q
#3181500
1!
1Q
b1000 Y
b1000 =
0<
0;
0:
19
#3211800
0!
0Q
#3242100
1!
1Q
b1001 Y
b1001 =
1<
#3272400
0!
0Q
#3302700
1!
1Q
b1010 Y
z\
1[
b0 `
0]
bz _
b1010 =
z@
1?
0H
0F
0G
0E
b0 I
0<
1;
z3
12
#3333000
0!
0Q
#3363300
1!
1Q
0k
0j
0i
0h
0g
0[
0?
02
